%!PS-Adobe-3.0
%%Creator: (MATLAB, The Mathworks, Inc. Version 9.4.0.813654 \(R2018a\). Operating System: Windows 10)
%%Title: FBCSP/plots/OVRSVMplot.ps
%%CreationDate: 2018-06-18T10:30:57
%%Pages: (atend)
%%BoundingBox:   123   284   482   556
%%LanguageLevel: 3
%%EndComments
%%BeginDefaults
%%EndDefaults
%%BeginProlog
%%EndProlog
%%BeginSetup
%%BeginResource: procset (Apache XML Graphics Std ProcSet) 1.2 0
%%Version: 1.2 0
%%Copyright: (Copyright 2001-2003,2010 The Apache Software Foundation. License terms: http://www.apache.org/licenses/LICENSE-2.0)
/bd{bind def}bind def
/ld{load def}bd
/GR/grestore ld
/GS/gsave ld
/RM/rmoveto ld
/C/curveto ld
/t/show ld
/L/lineto ld
/ML/setmiterlimit ld
/CT/concat ld
/f/fill ld
/N/newpath ld
/S/stroke ld
/CC/setcmykcolor ld
/A/ashow ld
/cp/closepath ld
/RC/setrgbcolor ld
/LJ/setlinejoin ld
/GC/setgray ld
/LW/setlinewidth ld
/M/moveto ld
/re {4 2 roll M
1 index 0 rlineto
0 exch rlineto
neg 0 rlineto
cp } bd
/_ctm matrix def
/_tm matrix def
/BT { _ctm currentmatrix pop matrix _tm copy pop 0 0 moveto } bd
/ET { _ctm setmatrix } bd
/iTm { _ctm setmatrix _tm concat } bd
/Tm { _tm astore pop iTm 0 0 moveto } bd
/ux 0.0 def
/uy 0.0 def
/F {
  /Tp exch def
  /Tf exch def
  Tf findfont Tp scalefont setfont
  /cf Tf def  /cs Tp def
} bd
/ULS {currentpoint /uy exch def /ux exch def} bd
/ULE {
  /Tcx currentpoint pop def
  gsave
  newpath
  cf findfont cs scalefont dup
  /FontMatrix get 0 get /Ts exch def /FontInfo get dup
  /UnderlinePosition get Ts mul /To exch def
  /UnderlineThickness get Ts mul /Tt exch def
  ux uy To add moveto  Tcx uy To add lineto
  Tt setlinewidth stroke
  grestore
} bd
/OLE {
  /Tcx currentpoint pop def
  gsave
  newpath
  cf findfont cs scalefont dup
  /FontMatrix get 0 get /Ts exch def /FontInfo get dup
  /UnderlinePosition get Ts mul /To exch def
  /UnderlineThickness get Ts mul /Tt exch def
  ux uy To add cs add moveto Tcx uy To add cs add lineto
  Tt setlinewidth stroke
  grestore
} bd
/SOE {
  /Tcx currentpoint pop def
  gsave
  newpath
  cf findfont cs scalefont dup
  /FontMatrix get 0 get /Ts exch def /FontInfo get dup
  /UnderlinePosition get Ts mul /To exch def
  /UnderlineThickness get Ts mul /Tt exch def
  ux uy To add cs 10 mul 26 idiv add moveto Tcx uy To add cs 10 mul 26 idiv add lineto
  Tt setlinewidth stroke
  grestore
} bd
/QT {
/Y22 exch store
/X22 exch store
/Y21 exch store
/X21 exch store
currentpoint
/Y21 load 2 mul add 3 div exch
/X21 load 2 mul add 3 div exch
/X21 load 2 mul /X22 load add 3 div
/Y21 load 2 mul /Y22 load add 3 div
/X22 load /Y22 load curveto
} bd
/SSPD {
dup length /d exch dict def
{
/v exch def
/k exch def
currentpagedevice k known {
/cpdv currentpagedevice k get def
v cpdv ne {
/upd false def
/nullv v type /nulltype eq def
/nullcpdv cpdv type /nulltype eq def
nullv nullcpdv or
{
/upd true def
} {
/sametype v type cpdv type eq def
sametype {
v type /arraytype eq {
/vlen v length def
/cpdvlen cpdv length def
vlen cpdvlen eq {
0 1 vlen 1 sub {
/i exch def
/obj v i get def
/cpdobj cpdv i get def
obj cpdobj ne {
/upd true def
exit
} if
} for
} {
/upd true def
} ifelse
} {
v type /dicttype eq {
v {
/dv exch def
/dk exch def
/cpddv cpdv dk get def
dv cpddv ne {
/upd true def
exit
} if
} forall
} {
/upd true def
} ifelse
} ifelse
} if
} ifelse
upd true eq {
d k v put
} if
} if
} if
} forall
d length 0 gt {
d setpagedevice
} if
} bd
/RE { % /NewFontName [NewEncodingArray] /FontName RE -
  findfont dup length dict begin
  {
    1 index /FID ne
    {def} {pop pop} ifelse
  } forall
  /Encoding exch def
  /FontName 1 index def
  currentdict definefont pop
  end
} bind def
%%EndResource
%%BeginResource: procset (Apache XML Graphics EPS ProcSet) 1.0 0
%%Version: 1.0 0
%%Copyright: (Copyright 2002-2003 The Apache Software Foundation. License terms: http://www.apache.org/licenses/LICENSE-2.0)
/BeginEPSF { %def
/b4_Inc_state save def         % Save state for cleanup
/dict_count countdictstack def % Count objects on dict stack
/op_count count 1 sub def      % Count objects on operand stack
userdict begin                 % Push userdict on dict stack
/showpage { } def              % Redefine showpage, { } = null proc
0 setgray 0 setlinecap         % Prepare graphics state
1 setlinewidth 0 setlinejoin
10 setmiterlimit [ ] 0 setdash newpath
/languagelevel where           % If level not equal to 1 then
{pop languagelevel             % set strokeadjust and
1 ne                           % overprint to their defaults.
{false setstrokeadjust false setoverprint
} if
} if
} bd
/EndEPSF { %def
count op_count sub {pop} repeat            % Clean up stacks
countdictstack dict_count sub {end} repeat
b4_Inc_state restore
} bd
%%EndResource
%FOPBeginFontDict
%%IncludeResource: font Courier-Oblique
%%IncludeResource: font Courier-BoldOblique
%%IncludeResource: font Courier-Bold
%%IncludeResource: font ZapfDingbats
%%IncludeResource: font Symbol
%%IncludeResource: font Helvetica
%%IncludeResource: font Helvetica-Oblique
%%IncludeResource: font Helvetica-Bold
%%IncludeResource: font Helvetica-BoldOblique
%%IncludeResource: font Times-Roman
%%IncludeResource: font Times-Italic
%%IncludeResource: font Times-Bold
%%IncludeResource: font Times-BoldItalic
%%IncludeResource: font Courier
%FOPEndFontDict
%%BeginResource: encoding WinAnsiEncoding
/WinAnsiEncoding [
/.notdef /.notdef /.notdef /.notdef /.notdef
/.notdef /.notdef /.notdef /.notdef /.notdef
/.notdef /.notdef /.notdef /.notdef /.notdef
/.notdef /.notdef /.notdef /.notdef /.notdef
/.notdef /.notdef /.notdef /.notdef /.notdef
/.notdef /.notdef /.notdef /.notdef /.notdef
/.notdef /.notdef /space /exclam /quotedbl
/numbersign /dollar /percent /ampersand /quotesingle
/parenleft /parenright /asterisk /plus /comma
/hyphen /period /slash /zero /one
/two /three /four /five /six
/seven /eight /nine /colon /semicolon
/less /equal /greater /question /at
/A /B /C /D /E
/F /G /H /I /J
/K /L /M /N /O
/P /Q /R /S /T
/U /V /W /X /Y
/Z /bracketleft /backslash /bracketright /asciicircum
/underscore /quoteleft /a /b /c
/d /e /f /g /h
/i /j /k /l /m
/n /o /p /q /r
/s /t /u /v /w
/x /y /z /braceleft /bar
/braceright /asciitilde /bullet /Euro /bullet
/quotesinglbase /florin /quotedblbase /ellipsis /dagger
/daggerdbl /circumflex /perthousand /Scaron /guilsinglleft
/OE /bullet /Zcaron /bullet /bullet
/quoteleft /quoteright /quotedblleft /quotedblright /bullet
/endash /emdash /asciitilde /trademark /scaron
/guilsinglright /oe /bullet /zcaron /Ydieresis
/space /exclamdown /cent /sterling /currency
/yen /brokenbar /section /dieresis /copyright
/ordfeminine /guillemotleft /logicalnot /sfthyphen /registered
/macron /degree /plusminus /twosuperior /threesuperior
/acute /mu /paragraph /middot /cedilla
/onesuperior /ordmasculine /guillemotright /onequarter /onehalf
/threequarters /questiondown /Agrave /Aacute /Acircumflex
/Atilde /Adieresis /Aring /AE /Ccedilla
/Egrave /Eacute /Ecircumflex /Edieresis /Igrave
/Iacute /Icircumflex /Idieresis /Eth /Ntilde
/Ograve /Oacute /Ocircumflex /Otilde /Odieresis
/multiply /Oslash /Ugrave /Uacute /Ucircumflex
/Udieresis /Yacute /Thorn /germandbls /agrave
/aacute /acircumflex /atilde /adieresis /aring
/ae /ccedilla /egrave /eacute /ecircumflex
/edieresis /igrave /iacute /icircumflex /idieresis
/eth /ntilde /ograve /oacute /ocircumflex
/otilde /odieresis /divide /oslash /ugrave
/uacute /ucircumflex /udieresis /yacute /thorn
/ydieresis
] def
%%EndResource
%FOPBeginFontReencode
/Courier-Oblique findfont
dup length dict begin
  {1 index /FID ne {def} {pop pop} ifelse} forall
  /Encoding WinAnsiEncoding def
  currentdict
end
/Courier-Oblique exch definefont pop
/Courier-BoldOblique findfont
dup length dict begin
  {1 index /FID ne {def} {pop pop} ifelse} forall
  /Encoding WinAnsiEncoding def
  currentdict
end
/Courier-BoldOblique exch definefont pop
/Courier-Bold findfont
dup length dict begin
  {1 index /FID ne {def} {pop pop} ifelse} forall
  /Encoding WinAnsiEncoding def
  currentdict
end
/Courier-Bold exch definefont pop
/Helvetica findfont
dup length dict begin
  {1 index /FID ne {def} {pop pop} ifelse} forall
  /Encoding WinAnsiEncoding def
  currentdict
end
/Helvetica exch definefont pop
/Helvetica-Oblique findfont
dup length dict begin
  {1 index /FID ne {def} {pop pop} ifelse} forall
  /Encoding WinAnsiEncoding def
  currentdict
end
/Helvetica-Oblique exch definefont pop
/Helvetica-Bold findfont
dup length dict begin
  {1 index /FID ne {def} {pop pop} ifelse} forall
  /Encoding WinAnsiEncoding def
  currentdict
end
/Helvetica-Bold exch definefont pop
/Helvetica-BoldOblique findfont
dup length dict begin
  {1 index /FID ne {def} {pop pop} ifelse} forall
  /Encoding WinAnsiEncoding def
  currentdict
end
/Helvetica-BoldOblique exch definefont pop
/Times-Roman findfont
dup length dict begin
  {1 index /FID ne {def} {pop pop} ifelse} forall
  /Encoding WinAnsiEncoding def
  currentdict
end
/Times-Roman exch definefont pop
/Times-Italic findfont
dup length dict begin
  {1 index /FID ne {def} {pop pop} ifelse} forall
  /Encoding WinAnsiEncoding def
  currentdict
end
/Times-Italic exch definefont pop
/Times-Bold findfont
dup length dict begin
  {1 index /FID ne {def} {pop pop} ifelse} forall
  /Encoding WinAnsiEncoding def
  currentdict
end
/Times-Bold exch definefont pop
/Times-BoldItalic findfont
dup length dict begin
  {1 index /FID ne {def} {pop pop} ifelse} forall
  /Encoding WinAnsiEncoding def
  currentdict
end
/Times-BoldItalic exch definefont pop
/Courier findfont
dup length dict begin
  {1 index /FID ne {def} {pop pop} ifelse} forall
  /Encoding WinAnsiEncoding def
  currentdict
end
/Courier exch definefont pop
%FOPEndFontReencode
%%EndSetup
%%Page: 1 1
%%PageBoundingBox: 0 0 595 842
%%BeginPageSetup
<<
/PageSize [595 842]
/ImagingBBox null
>> setpagedevice
[1 0 0 -1 0 842] CT
%%EndPageSetup
GS
[0.6 0 0 0.6 87.63778 263.55511] CT
0.979 GC
N
0 0 700 525 re
f
GR
GS
[0.6 0 0 0.6 87.63778 263.55511] CT
0.979 GC
N
0 0 700 525 re
f
GR
GS
[0.6 0 0 0.6 87.63778 263.55511] CT
0.979 GC
N
326.756 467 M
634 383.868 L
634 147.34 L
398.244 39 L
91 122.132 L
91 358.66 L
cp
f
GR
GS
[0.6 0 0 0.6 87.63778 263.55511] CT
0.836 GC
1 LJ
0.833 LW
N
326.756 467 M
91 358.66 L
S
GR
GS
[0.6 0 0 0.6 87.63778 263.55511] CT
0.836 GC
1 LJ
0.833 LW
N
403.567 446.217 M
167.811 337.877 L
S
GR
GS
[0.6 0 0 0.6 87.63778 263.55511] CT
0.836 GC
1 LJ
0.833 LW
N
480.378 425.434 M
244.622 317.094 L
S
GR
GS
[0.6 0 0 0.6 87.63778 263.55511] CT
0.836 GC
1 LJ
0.833 LW
N
557.189 404.651 M
321.433 296.311 L
S
GR
GS
[0.6 0 0 0.6 87.63778 263.55511] CT
0.836 GC
1 LJ
0.833 LW
N
634 383.868 M
398.244 275.528 L
S
GR
GS
[0.6 0 0 0.6 87.63778 263.55511] CT
0.836 GC
1 LJ
0.833 LW
N
91 358.66 M
91 122.132 L
S
GR
GS
[0.6 0 0 0.6 87.63778 263.55511] CT
0.836 GC
1 LJ
0.833 LW
N
167.811 337.877 M
167.811 101.349 L
S
GR
GS
[0.6 0 0 0.6 87.63778 263.55511] CT
0.836 GC
1 LJ
0.833 LW
N
244.622 317.094 M
244.622 80.566 L
S
GR
GS
[0.6 0 0 0.6 87.63778 263.55511] CT
0.836 GC
1 LJ
0.833 LW
N
321.433 296.311 M
321.433 59.783 L
S
GR
GS
[0.6 0 0 0.6 87.63778 263.55511] CT
0.836 GC
1 LJ
0.833 LW
N
398.244 275.528 M
398.244 39 L
S
GR
GS
[0.6 0 0 0.6 87.63778 263.55511] CT
0.836 GC
1 LJ
0.833 LW
N
634 383.868 M
326.756 467 L
S
GR
GS
[0.6 0 0 0.6 87.63778 263.55511] CT
0.836 GC
1 LJ
0.833 LW
N
516.122 329.698 M
208.878 412.83 L
S
GR
GS
[0.6 0 0 0.6 87.63778 263.55511] CT
0.836 GC
1 LJ
0.833 LW
N
398.244 275.528 M
91 358.66 L
S
GR
GS
[0.6 0 0 0.6 87.63778 263.55511] CT
0.836 GC
1 LJ
0.833 LW
N
634 147.34 M
634 383.868 L
S
GR
GS
[0.6 0 0 0.6 87.63778 263.55511] CT
0.836 GC
1 LJ
0.833 LW
N
516.122 93.17 M
516.122 329.698 L
S
GR
GS
[0.6 0 0 0.6 87.63778 263.55511] CT
0.836 GC
1 LJ
0.833 LW
N
398.244 39 M
398.244 275.528 L
S
GR
GS
[0.6 0 0 0.6 87.63778 263.55511] CT
0.836 GC
1 LJ
0.833 LW
N
398.244 271.85 M
91 354.983 L
S
GR
GS
[0.6 0 0 0.6 87.63778 263.55511] CT
0.836 GC
1 LJ
0.833 LW
N
398.244 231.114 M
91 314.246 L
S
GR
GS
[0.6 0 0 0.6 87.63778 263.55511] CT
0.836 GC
1 LJ
0.833 LW
N
398.244 190.378 M
91 273.51 L
S
GR
GS
[0.6 0 0 0.6 87.63778 263.55511] CT
0.836 GC
1 LJ
0.833 LW
N
398.244 149.642 M
91 232.774 L
S
GR
GS
[0.6 0 0 0.6 87.63778 263.55511] CT
0.836 GC
1 LJ
0.833 LW
N
398.244 108.905 M
91 192.038 L
S
GR
GS
[0.6 0 0 0.6 87.63778 263.55511] CT
0.836 GC
1 LJ
0.833 LW
N
398.244 68.169 M
91 151.301 L
S
GR
GS
[0.6 0 0 0.6 87.63778 263.55511] CT
0.836 GC
1 LJ
0.833 LW
N
634 380.19 M
398.244 271.85 L
S
GR
GS
[0.6 0 0 0.6 87.63778 263.55511] CT
0.836 GC
1 LJ
0.833 LW
N
634 339.454 M
398.244 231.114 L
S
GR
GS
[0.6 0 0 0.6 87.63778 263.55511] CT
0.836 GC
1 LJ
0.833 LW
N
634 298.718 M
398.244 190.378 L
S
GR
GS
[0.6 0 0 0.6 87.63778 263.55511] CT
0.836 GC
1 LJ
0.833 LW
N
634 257.982 M
398.244 149.642 L
S
GR
GS
[0.6 0 0 0.6 87.63778 263.55511] CT
0.836 GC
1 LJ
0.833 LW
N
634 217.245 M
398.244 108.905 L
S
GR
GS
[0.6 0 0 0.6 87.63778 263.55511] CT
0.836 GC
1 LJ
0.833 LW
N
634 176.509 M
398.244 68.169 L
S
GR
GS
[0.6 0 0 0.6 87.63778 263.55511] CT
0.728 GC
N
359.838 125.615 M
383.414 112.089 L
345.008 115.408 L
cp
f
GR
GS
[0.6 0 0 0.6 87.63778 263.55511] CT
0 GC
1 LJ
0.833 LW
N
383.414 112.089 M
359.838 125.615 L
S
GR
GS
[0.6 0 0 0.6 87.63778 263.55511] CT
0.728 GC
N
345.008 115.408 M
321.433 128.148 L
359.838 125.615 L
cp
f
GR
GS
[0.6 0 0 0.6 87.63778 263.55511] CT
0 GC
1 LJ
0.833 LW
N
321.433 128.148 M
359.838 125.615 L
S
GR
GS
[0.6 0 0 0.6 87.63778 263.55511] CT
0.609 GC
N
368.584 176.534 M
406.989 187.359 L
383.414 112.089 L
cp
f
GR
GS
[0.6 0 0 0.6 87.63778 263.55511] CT
0 GC
1 setlinecap
1 LJ
0.833 LW
N
406.989 187.359 M
383.414 112.089 L
S
GR
GS
[0.6 0 0 0.6 87.63778 263.55511] CT
0.728 GC
N
392.16 139.433 M
368.584 176.534 L
406.989 187.359 L
430.565 150.259 L
cp
f
GR
GS
[0.6 0 0 0.6 87.63778 263.55511] CT
0 GC
1 setlinecap
1 LJ
0.833 LW
N
430.565 150.259 M
406.989 187.359 L
S
GR
GS
[0.6 0 0 0.6 87.63778 263.55511] CT
0 GC
1 LJ
0.833 LW
N
368.584 176.534 M
406.989 187.359 L
S
GR
GS
[0.6 0 0 0.6 87.63778 263.55511] CT
0.745 GC
N
321.433 128.148 M
345.008 115.408 L
306.603 122.656 L
283.027 125.967 L
cp
f
GR
GS
[0.6 0 0 0.6 87.63778 263.55511] CT
0 GC
1 LJ
0.833 LW
N
345.008 115.408 M
321.433 128.148 L
S
GR
GS
[0.6 0 0 0.6 87.63778 263.55511] CT
0 GC
1 setlinecap
1 LJ
0.833 LW
N
283.027 125.967 M
321.433 128.148 L
S
GR
GS
[0.6 0 0 0.6 134.26496 472.88077] CT
0 GC
/Helvetica 16.667 F
GS
[1 0 0 1 0 0] CT
-19 6.5 moveto 
1 -1 scale
(54) t 
GR
GR
GS
[0.6 0 0 0.6 87.63778 263.55511] CT
0 GC
2 setlinecap
1 LJ
0.833 LW
N
91 354.983 M
83.77 351.66 L
S
GR
GS
[0.6 0 0 0.6 87.63778 263.55511] CT
0.609 GC
N
383.414 112.089 M
345.008 115.408 L
368.584 176.534 L
cp
f
GR
GS
[0.6 0 0 0.6 87.63778 263.55511] CT
0 GC
2 setlinecap
1 LJ
0.833 LW
N
345.008 115.408 M
383.414 112.089 L
S
GR
GS
[0.6 0 0 0.6 87.63778 263.55511] CT
0 GC
2 setlinecap
1 LJ
0.833 LW
N
326.756 467 M
91 358.66 L
S
GR
GS
[0.6 0 0 0.6 87.63778 263.55511] CT
0 GC
2 setlinecap
1 LJ
0.833 LW
N
91 358.66 M
83.319 360.738 L
S
GR
GS
[0.6 0 0 0.6 87.63778 263.55511] CT
0 GC
2 setlinecap
1 LJ
0.833 LW
N
91 358.66 M
91 122.132 L
S
GR
GS
[0.6 0 0 0.6 133.76797 481.0429] CT
0 GC
/Helvetica 16.667 F
GS
[1 0 0 1 0 0] CT
-19 17 moveto 
1 -1 scale
(10) t 
GR
GR
GS
[0.6 0 0 0.6 87.63778 263.55511] CT
0.665 GC
N
330.179 168.852 M
368.584 176.534 L
345.008 115.408 L
cp
f
GR
GS
[0.6 0 0 0.6 87.63778 263.55511] CT
0.728 GC
N
353.754 149.825 M
330.179 168.852 L
368.584 176.534 L
cp
f
GR
GS
[0.6 0 0 0.6 87.63778 263.55511] CT
0 GC
1 setlinecap
1 LJ
0.833 LW
N
368.584 176.534 M
345.008 115.408 L
S
GR
GS
[0.6 0 0 0.6 87.63778 263.55511] CT
0.728 GC
N
368.584 176.534 M
392.16 139.433 L
353.754 149.825 L
cp
f
GR
GS
[0.6 0 0 0.6 87.63778 263.55511] CT
0 GC
1 setlinecap
1 LJ
0.833 LW
N
392.16 139.433 M
368.584 176.534 L
S
GR
GS
[0.6 0 0 0.6 87.63778 263.55511] CT
0 GC
1 setlinecap
1 LJ
0.833 LW
N
330.179 168.852 M
368.584 176.534 L
S
GR
GS
[0.6 0 0 0.6 87.63778 263.55511] CT
0.792 GC
N
268.197 120.475 M
244.622 123.785 L
283.027 125.967 L
306.603 122.656 L
cp
f
GR
GS
[0.6 0 0 0.6 87.63778 263.55511] CT
0 GC
1 LJ
0.833 LW
N
306.603 122.656 M
283.027 125.967 L
S
GR
GS
[0.6 0 0 0.6 87.63778 263.55511] CT
0 GC
1 setlinecap
1 LJ
0.833 LW
N
244.622 123.785 M
283.027 125.967 L
S
GR
GS
[0.6 0 0 0.6 134.26496 448.43903] CT
0 GC
/Helvetica 16.667 F
GS
[1 0 0 1 0 0] CT
-19 6.5 moveto 
1 -1 scale
(56) t 
GR
GR
GS
[0.6 0 0 0.6 87.63778 263.55511] CT
0 GC
1 setlinecap
1 LJ
0.833 LW
N
91 314.246 M
83.77 310.924 L
S
GR
GS
[0.6 0 0 0.6 87.63778 263.55511] CT
0.665 GC
N
345.008 115.408 M
306.603 122.656 L
330.179 168.852 L
cp
f
GR
GS
[0.6 0 0 0.6 87.63778 263.55511] CT
0 GC
1 setlinecap
1 LJ
0.833 LW
N
306.603 122.656 M
345.008 115.408 L
S
GR
GS
[0.6 0 0 0.6 87.63778 263.55511] CT
0.396 GC
N
510.038 340.549 M
548.443 372.591 L
524.868 304.393 L
cp
533.613 352.169 M
510.038 340.549 L
548.443 372.591 L
cp
f
GR
GS
[0.6 0 0 0.6 87.63778 263.55511] CT
0 GC
1 setlinecap
1 LJ
0.833 LW
N
548.443 372.591 M
524.868 304.393 L
S
GR
GS
[0.6 0 0 0.6 87.63778 263.55511] CT
0.396 GC
N
548.443 372.591 M
572.019 356.708 L
533.613 352.169 L
cp
f
GR
GS
[0.6 0 0 0.6 87.63778 263.55511] CT
0 GC
1 setlinecap
1 LJ
0.833 LW
N
572.019 356.708 M
548.443 372.591 L
S
GR
GS
[0.6 0 0 0.6 87.63778 263.55511] CT
0 GC
1 setlinecap
1 LJ
0.833 LW
N
510.038 340.549 M
548.443 372.591 L
S
GR
GS
[0.6 0 0 0.6 87.63778 263.55511] CT
0.592 GC
N
439.311 212.965 M
477.716 237.149 L
454.141 188.596 L
cp
f
GR
GS
[0.6 0 0 0.6 87.63778 263.55511] CT
0 GC
1 setlinecap
1 LJ
0.833 LW
N
477.716 237.149 M
454.141 188.596 L
S
GR
GS
[0.6 0 0 0.6 87.63778 263.55511] CT
0.504 GC
N
462.887 269.376 M
501.292 258.984 L
477.716 237.149 L
cp
f
GR
GS
[0.6 0 0 0.6 87.63778 263.55511] CT
0 GC
1 setlinecap
1 LJ
0.833 LW
N
501.292 258.984 M
477.716 237.149 L
S
GR
GS
[0.6 0 0 0.6 87.63778 263.55511] CT
0.504 GC
N
477.716 237.149 M
439.311 212.965 L
462.887 269.376 L
cp
f
GR
GS
[0.6 0 0 0.6 87.63778 263.55511] CT
0 GC
1 setlinecap
1 LJ
0.833 LW
N
439.311 212.965 M
477.716 237.149 L
S
GR
GS
[0.6 0 0 0.6 87.63778 263.55511] CT
0.575 GC
N
415.735 209.989 M
454.141 188.596 L
430.565 150.259 L
392.16 139.433 L
cp
f
GR
GS
[0.6 0 0 0.6 87.63778 263.55511] CT
0 GC
1 setlinecap
1 LJ
0.833 LW
N
454.141 188.596 M
430.565 150.259 L
S
GR
GS
[0.6 0 0 0.6 87.63778 263.55511] CT
0 GC
1 LJ
0.833 LW
N
392.16 139.433 M
430.565 150.259 L
S
GR
GS
[0.6 0 0 0.6 87.63778 263.55511] CT
0.592 GC
N
454.141 188.596 M
415.735 209.989 L
439.311 212.965 L
cp
f
GR
GS
[0.6 0 0 0.6 87.63778 263.55511] CT
0 GC
1 LJ
0.833 LW
N
415.735 209.989 M
454.141 188.596 L
S
GR
GS
[0.6 0 0 0.6 87.63778 263.55511] CT
0.396 GC
N
486.462 329.715 M
524.868 304.393 L
501.292 258.984 L
cp
f
GR
GS
[0.6 0 0 0.6 87.63778 263.55511] CT
0 GC
1 setlinecap
1 LJ
0.833 LW
N
524.868 304.393 M
501.292 258.984 L
S
GR
GS
[0.6 0 0 0.6 87.63778 263.55511] CT
0.396 GC
N
524.868 304.393 M
486.462 329.715 L
510.038 340.549 L
cp
f
GR
GS
[0.6 0 0 0.6 87.63778 263.55511] CT
0 GC
1 setlinecap
1 LJ
0.833 LW
N
486.462 329.715 M
524.868 304.393 L
S
GR
GS
[0.6 0 0 0.6 134.26496 423.99729] CT
0 GC
/Helvetica 16.667 F
GS
[1 0 0 1 0 0] CT
-19 6.5 moveto 
1 -1 scale
(58) t 
GR
GR
GS
[0.6 0 0 0.6 87.63778 263.55511] CT
0.728 GC
N
229.792 148.154 M
268.197 120.475 L
244.622 123.785 L
cp
f
GR
GS
[0.6 0 0 0.6 87.63778 263.55511] CT
0 GC
1 setlinecap
1 LJ
0.833 LW
N
268.197 120.475 M
244.622 123.785 L
S
GR
GS
[0.6 0 0 0.6 87.63778 263.55511] CT
0.728 GC
N
244.622 123.785 M
206.216 149.893 L
229.792 148.154 L
cp
f
GR
GS
[0.6 0 0 0.6 87.63778 263.55511] CT
0 GC
1 setlinecap
1 LJ
0.833 LW
N
206.216 149.893 M
244.622 123.785 L
S
GR
GS
[0.6 0 0 0.6 87.63778 263.55511] CT
0.702 GC
N
291.773 158.812 M
330.179 168.852 L
306.603 122.656 L
cp
f
GR
GS
[0.6 0 0 0.6 87.63778 263.55511] CT
0 GC
1 setlinecap
1 LJ
0.833 LW
N
330.179 168.852 M
306.603 122.656 L
S
GR
GS
[0.6 0 0 0.6 87.63778 263.55511] CT
0.769 GC
N
315.349 149.215 M
291.773 158.812 L
330.179 168.852 L
353.754 149.825 L
cp
f
GR
GS
[0.6 0 0 0.6 87.63778 263.55511] CT
0 GC
1 setlinecap
1 LJ
0.833 LW
N
291.773 158.812 M
330.179 168.852 L
S
GR
GS
[0.6 0 0 0.6 87.63778 263.55511] CT
0 GC
1 setlinecap
1 LJ
0.833 LW
N
353.754 149.825 M
330.179 168.852 L
S
GR
GS
[0.6 0 0 0.6 87.63778 263.55511] CT
0.396 GC
N
501.292 258.984 M
462.887 269.376 L
486.462 329.715 L
cp
f
GR
GS
[0.6 0 0 0.6 87.63778 263.55511] CT
0 GC
1 setlinecap
1 LJ
0.833 LW
N
462.887 269.376 M
501.292 258.984 L
S
GR
GS
[0.6 0 0 0.6 87.63778 263.55511] CT
0.702 GC
N
306.603 122.656 M
268.197 120.475 L
291.773 158.812 L
cp
f
GR
GS
[0.6 0 0 0.6 87.63778 263.55511] CT
0 GC
1 setlinecap
1 LJ
0.833 LW
N
268.197 120.475 M
306.603 122.656 L
S
GR
GS
[0.6 0 0 0.6 87.63778 263.55511] CT
0.63 GC
N
377.33 199.949 M
415.735 209.989 L
392.16 139.433 L
cp
f
GR
GS
[0.6 0 0 0.6 87.63778 263.55511] CT
0.582 GC
N
415.735 209.989 M
377.33 199.949 L
400.905 225.714 L
cp
f
GR
GS
[0.6 0 0 0.6 87.63778 263.55511] CT
0 GC
1 setlinecap
1 LJ
0.833 LW
N
377.33 199.949 M
415.735 209.989 L
S
GR
GS
[0.6 0 0 0.6 87.63778 263.55511] CT
0 GC
1 setlinecap
1 LJ
0.833 LW
N
415.735 209.989 M
392.16 139.433 L
S
GR
GS
[0.6 0 0 0.6 87.63778 263.55511] CT
0.582 GC
N
400.905 225.714 M
439.311 212.965 L
415.735 209.989 L
cp
f
GR
GS
[0.6 0 0 0.6 87.63778 263.55511] CT
0 GC
1 setlinecap
1 LJ
0.833 LW
N
439.311 212.965 M
415.735 209.989 L
S
GR
GS
[0.6 0 0 0.6 87.63778 263.55511] CT
0 GC
1 setlinecap
1 LJ
0.833 LW
N
91 273.51 M
83.77 270.187 L
S
GR
GS
[0.6 0 0 0.6 87.63778 263.55511] CT
0 GC
2 setlinecap
1 LJ
0.833 LW
N
326.756 467 M
634 383.868 L
S
GR
GS
[0.6 0 0 0.6 87.63778 263.55511] CT
0 GC
2 setlinecap
1 LJ
0.833 LW
N
634 383.868 M
641.23 387.191 L
S
GR
GS
[0.6 0 0 0.6 87.63778 263.55511] CT
0.426 GC
N
486.462 329.715 M
448.057 347.179 L
471.632 340.725 L
cp
f
GR
GS
[0.6 0 0 0.6 87.63778 263.55511] CT
0.365 GC
N
448.057 347.179 M
486.462 329.715 L
462.887 269.376 L
cp
f
GR
GS
[0.6 0 0 0.6 87.63778 263.55511] CT
0 GC
1 setlinecap
1 LJ
0.833 LW
N
448.057 347.179 M
486.462 329.715 L
S
GR
GS
[0.6 0 0 0.6 87.63778 263.55511] CT
0 GC
1 setlinecap
1 LJ
0.833 LW
N
486.462 329.715 M
462.887 269.376 L
S
GR
GS
[0.6 0 0 0.6 87.63778 263.55511] CT
0.426 GC
N
471.632 340.725 M
510.038 340.549 L
486.462 329.715 L
cp
f
GR
GS
[0.6 0 0 0.6 87.63778 263.55511] CT
0 GC
1 setlinecap
1 LJ
0.833 LW
N
510.038 340.549 M
486.462 329.715 L
S
GR
GS
[0.6 0 0 0.6 87.63778 263.55511] CT
0.835 GC
N
191.387 124.756 M
167.811 117.851 L
206.216 149.893 L
cp
f
GR
GS
[0.6 0 0 0.6 87.63778 263.55511] CT
0 GC
1 setlinecap
1 LJ
0.833 LW
N
167.811 117.851 M
206.216 149.893 L
S
GR
GS
[0.6 0 0 0.6 87.63778 263.55511] CT
0.835 GC
N
206.216 149.893 M
229.792 148.154 L
191.387 124.756 L
cp
f
GR
GS
[0.6 0 0 0.6 87.63778 263.55511] CT
0 GC
1 setlinecap
1 LJ
0.833 LW
N
229.792 148.154 M
206.216 149.893 L
S
GR
GS
[0.6 0 0 0.6 476.01059 497.5397] CT
0 GC
/Helvetica 16.667 F
GS
[1 0 0 1 0 0] CT
0 17 moveto 
1 -1 scale
(8) t 
GR
GR
GS
[0.6 0 0 0.6 87.63778 263.55511] CT
0.63 GC
N
392.16 139.433 M
353.754 149.825 L
377.33 199.949 L
cp
f
GR
GS
[0.6 0 0 0.6 87.63778 263.55511] CT
0 GC
1 setlinecap
1 LJ
0.833 LW
N
353.754 149.825 M
392.16 139.433 L
S
GR
GS
[0.6 0 0 0.6 87.63778 263.55511] CT
0.365 GC
N
462.887 269.376 M
424.481 283.696 L
448.057 347.179 L
cp
f
GR
GS
[0.6 0 0 0.6 87.63778 263.55511] CT
0.501 GC
N
424.481 283.696 M
462.887 269.376 L
439.311 212.965 L
cp
f
GR
GS
[0.6 0 0 0.6 87.63778 263.55511] CT
0 GC
1 setlinecap
1 LJ
0.833 LW
N
462.887 269.376 M
439.311 212.965 L
S
GR
GS
[0.6 0 0 0.6 87.63778 263.55511] CT
0 GC
1 setlinecap
1 LJ
0.833 LW
N
424.481 283.696 M
462.887 269.376 L
S
GR
GS
[0.6 0 0 0.6 87.63778 263.55511] CT
0 GC
1 LJ
0.833 LW
N
533.613 352.169 M
572.019 356.708 L
S
GR
GS
[0.6 0 0 0.6 87.63778 263.55511] CT
0.455 GC
N
409.651 324.567 M
448.057 347.179 L
424.481 283.696 L
cp
f
GR
GS
[0.6 0 0 0.6 87.63778 263.55511] CT
0.446 GC
N
433.227 337.758 M
409.651 324.567 L
448.057 347.179 L
cp
f
GR
GS
[0.6 0 0 0.6 87.63778 263.55511] CT
0 GC
1 setlinecap
1 LJ
0.833 LW
N
448.057 347.179 M
424.481 283.696 L
S
GR
GS
[0.6 0 0 0.6 87.63778 263.55511] CT
0.446 GC
N
448.057 347.179 M
471.632 340.725 L
433.227 337.758 L
cp
f
GR
GS
[0.6 0 0 0.6 87.63778 263.55511] CT
0 GC
1 setlinecap
1 LJ
0.833 LW
N
409.651 324.567 M
448.057 347.179 L
S
GR
GS
[0.6 0 0 0.6 87.63778 263.55511] CT
0 GC
1 setlinecap
1 LJ
0.833 LW
N
471.632 340.725 M
448.057 347.179 L
S
GR
GS
[0.6 0 0 0.6 134.26496 399.55554] CT
0 GC
/Helvetica 16.667 F
GS
[1 0 0 1 0 0] CT
-19 6.5 moveto 
1 -1 scale
(60) t 
GR
GR
GS
[0.6 0 0 0.6 87.63778 263.55511] CT
0.501 GC
N
439.311 212.965 M
400.905 225.714 L
424.481 283.696 L
cp
f
GR
GS
[0.6 0 0 0.6 87.63778 263.55511] CT
0 GC
1 setlinecap
1 LJ
0.833 LW
N
400.905 225.714 M
439.311 212.965 L
S
GR
GS
[0.6 0 0 0.6 87.63778 263.55511] CT
0.757 GC
N
253.368 152.702 M
291.773 158.812 L
268.197 120.475 L
229.792 148.154 L
cp
f
GR
GS
[0.6 0 0 0.6 87.63778 263.55511] CT
0 GC
1 setlinecap
1 LJ
0.833 LW
N
229.792 148.154 M
268.197 120.475 L
S
GR
GS
[0.6 0 0 0.6 87.63778 263.55511] CT
0 GC
1 setlinecap
1 LJ
0.833 LW
N
291.773 158.812 M
268.197 120.475 L
S
GR
GS
[0.6 0 0 0.6 87.63778 263.55511] CT
0.406 GC
N
495.208 358.632 M
533.613 352.169 L
510.038 340.549 L
471.632 340.725 L
cp
f
GR
GS
[0.6 0 0 0.6 87.63778 263.55511] CT
0 GC
1 setlinecap
1 LJ
0.833 LW
N
471.632 340.725 M
510.038 340.549 L
S
GR
GS
[0.6 0 0 0.6 87.63778 263.55511] CT
0 GC
1 LJ
0.833 LW
N
533.613 352.169 M
510.038 340.549 L
S
GR
GS
[0.6 0 0 0.6 87.63778 263.55511] CT
0 GC
1 setlinecap
1 LJ
0.833 LW
N
91 232.774 M
83.77 229.451 L
S
GR
GS
[0.6 0 0 0.6 87.63778 263.55511] CT
0.745 GC
N
291.773 158.812 M
253.368 152.702 L
276.943 164.322 L
cp
f
GR
GS
[0.6 0 0 0.6 87.63778 263.55511] CT
0 GC
1 setlinecap
1 LJ
0.833 LW
N
253.368 152.702 M
291.773 158.812 L
S
GR
GS
[0.6 0 0 0.6 87.63778 263.55511] CT
0.745 GC
N
291.773 158.812 M
315.349 149.215 L
276.943 164.322 L
cp
f
GR
GS
[0.6 0 0 0.6 87.63778 263.55511] CT
0 GC
1 setlinecap
1 LJ
0.833 LW
N
315.349 149.215 M
291.773 158.812 L
S
GR
GS
[0.6 0 0 0.6 87.63778 263.55511] CT
0.609 GC
N
377.33 199.949 M
338.924 177.337 L
362.5 228.247 L
cp
f
GR
GS
[0.6 0 0 0.6 87.63778 263.55511] CT
0.708 GC
N
338.924 177.337 M
377.33 199.949 L
353.754 149.825 L
cp
f
GR
GS
[0.6 0 0 0.6 87.63778 263.55511] CT
0 GC
1 setlinecap
1 LJ
0.833 LW
N
377.33 199.949 M
353.754 149.825 L
S
GR
GS
[0.6 0 0 0.6 87.63778 263.55511] CT
0.609 GC
N
362.5 228.247 M
400.905 225.714 L
377.33 199.949 L
cp
f
GR
GS
[0.6 0 0 0.6 87.63778 263.55511] CT
0 GC
1 setlinecap
1 LJ
0.833 LW
N
400.905 225.714 M
377.33 199.949 L
S
GR
GS
[0.6 0 0 0.6 87.63778 263.55511] CT
0 GC
1 setlinecap
1 LJ
0.833 LW
N
338.924 177.337 M
377.33 199.949 L
S
GR
GS
[0.6 0 0 0.6 87.63778 263.55511] CT
0.455 GC
N
424.481 283.696 M
386.076 265.013 L
409.651 324.567 L
cp
f
GR
GS
[0.6 0 0 0.6 87.63778 263.55511] CT
0.52 GC
N
386.076 265.013 M
424.481 283.696 L
400.905 225.714 L
cp
f
GR
GS
[0.6 0 0 0.6 87.63778 263.55511] CT
0 GC
1 setlinecap
1 LJ
0.833 LW
N
386.076 265.013 M
424.481 283.696 L
S
GR
GS
[0.6 0 0 0.6 87.63778 263.55511] CT
0 GC
1 setlinecap
1 LJ
0.833 LW
N
424.481 283.696 M
400.905 225.714 L
S
GR
GS
[0.6 0 0 0.6 87.63778 263.55511] CT
0.745 GC
N
229.792 148.154 M
191.387 124.756 L
214.962 167.022 L
cp
f
GR
GS
[0.6 0 0 0.6 87.63778 263.55511] CT
0 GC
1 setlinecap
1 LJ
0.833 LW
N
191.387 124.756 M
229.792 148.154 L
S
GR
GS
[0.6 0 0 0.6 87.63778 263.55511] CT
0.745 GC
N
214.962 167.022 M
253.368 152.702 L
229.792 148.154 L
cp
f
GR
GS
[0.6 0 0 0.6 87.63778 263.55511] CT
0 GC
1 setlinecap
1 LJ
0.833 LW
N
253.368 152.702 M
229.792 148.154 L
S
GR
GS
[0.6 0 0 0.6 87.63778 263.55511] CT
0.708 GC
N
353.754 149.825 M
315.349 149.215 L
338.924 177.337 L
cp
f
GR
GS
[0.6 0 0 0.6 87.63778 263.55511] CT
0 GC
1 setlinecap
1 LJ
0.833 LW
N
315.349 149.215 M
353.754 149.825 L
S
GR
GS
[0.6 0 0 0.6 87.63778 263.55511] CT
0 GC
1 setlinecap
1 LJ
0.833 LW
N
557.189 404.651 M
564.419 407.974 L
S
GR
GS
[0.6 0 0 0.6 87.63778 263.55511] CT
0.52 GC
N
400.905 225.714 M
362.5 228.247 L
386.076 265.013 L
cp
f
GR
GS
[0.6 0 0 0.6 87.63778 263.55511] CT
0 GC
1 setlinecap
1 LJ
0.833 LW
N
362.5 228.247 M
400.905 225.714 L
S
GR
GS
[0.6 0 0 0.6 87.63778 263.55511] CT
0 GC
1 setlinecap
1 LJ
0.833 LW
N
495.208 358.632 M
533.613 352.169 L
S
GR
GS
[0.6 0 0 0.6 134.26496 375.1138] CT
0 GC
/Helvetica 16.667 F
GS
[1 0 0 1 0 0] CT
-19 6.5 moveto 
1 -1 scale
(62) t 
GR
GR
GS
[0.6 0 0 0.6 429.92405 510.00951] CT
0 GC
/Helvetica 16.667 F
GS
[1 0 0 1 0 0] CT
0 17 moveto 
1 -1 scale
(6) t 
GR
GR
GS
[0.6 0 0 0.6 87.63778 263.55511] CT
0 GC
1 setlinecap
1 LJ
0.833 LW
N
91 192.038 M
83.77 188.715 L
S
GR
GS
[0.6 0 0 0.6 87.63778 263.55511] CT
0.494 GC
N
456.803 332.876 M
433.227 337.758 L
471.632 340.725 L
cp
f
GR
GS
[0.6 0 0 0.6 87.63778 263.55511] CT
0 GC
1 setlinecap
1 LJ
0.833 LW
N
433.227 337.758 M
471.632 340.725 L
S
GR
GS
[0.6 0 0 0.6 87.63778 263.55511] CT
0.494 GC
N
456.803 332.876 M
495.208 358.632 L
471.632 340.725 L
cp
f
GR
GS
[0.6 0 0 0.6 87.63778 263.55511] CT
0 GC
1 setlinecap
1 LJ
0.833 LW
N
495.208 358.632 M
471.632 340.725 L
S
GR
GS
[0.6 0 0 0.6 87.63778 263.55511] CT
0.876 GC
N
167.811 117.851 M
129.405 111.741 L
152.981 123.36 L
191.387 124.756 L
cp
f
GR
GS
[0.6 0 0 0.6 87.63778 263.55511] CT
0 GC
1 setlinecap
1 LJ
0.833 LW
N
129.405 111.741 M
167.811 117.851 L
S
GR
GS
[0.6 0 0 0.6 87.63778 263.55511] CT
0 GC
1 setlinecap
1 LJ
0.833 LW
N
191.387 124.756 M
167.811 117.851 L
S
GR
GS
[0.6 0 0 0.6 87.63778 263.55511] CT
0 GC
1 setlinecap
1 LJ
0.833 LW
N
208.878 412.83 M
201.197 414.908 L
S
GR
GS
[0.6 0 0 0.6 87.63778 263.55511] CT
0.824 GC
N
238.538 148.781 M
214.962 167.022 L
253.368 152.702 L
cp
f
GR
GS
[0.6 0 0 0.6 87.63778 263.55511] CT
0 GC
1 setlinecap
1 LJ
0.833 LW
N
214.962 167.022 M
253.368 152.702 L
S
GR
GS
[0.6 0 0 0.6 87.63778 263.55511] CT
0.824 GC
N
238.538 148.781 M
276.943 164.322 L
253.368 152.702 L
cp
f
GR
GS
[0.6 0 0 0.6 87.63778 263.55511] CT
0 GC
1 setlinecap
1 LJ
0.833 LW
N
276.943 164.322 M
253.368 152.702 L
S
GR
GS
[0.6 0 0 0.6 87.63778 263.55511] CT
0.575 GC
N
371.246 272.879 M
409.651 324.567 L
386.076 265.013 L
cp
f
GR
GS
[0.6 0 0 0.6 87.63778 263.55511] CT
0.432 GC
N
409.651 324.567 M
371.246 272.879 L
394.821 356.794 L
cp
f
GR
GS
[0.6 0 0 0.6 87.63778 263.55511] CT
0 GC
1 setlinecap
1 LJ
0.833 LW
N
371.246 272.879 M
409.651 324.567 L
S
GR
GS
[0.6 0 0 0.6 87.63778 263.55511] CT
0.432 GC
N
394.821 356.794 M
433.227 337.758 L
409.651 324.567 L
cp
f
GR
GS
[0.6 0 0 0.6 87.63778 263.55511] CT
0 GC
1 setlinecap
1 LJ
0.833 LW
N
409.651 324.567 M
386.076 265.013 L
S
GR
GS
[0.6 0 0 0.6 87.63778 263.55511] CT
0 GC
1 setlinecap
1 LJ
0.833 LW
N
433.227 337.758 M
409.651 324.567 L
S
GR
GS
[0.6 0 0 0.6 87.63778 263.55511] CT
0.686 GC
N
315.349 149.215 M
276.943 164.322 L
300.519 197.158 L
cp
f
GR
GS
[0.6 0 0 0.6 87.63778 263.55511] CT
0 GC
1 setlinecap
1 LJ
0.833 LW
N
276.943 164.322 M
315.349 149.215 L
S
GR
GS
[0.6 0 0 0.6 87.63778 263.55511] CT
0.686 GC
N
300.519 197.158 M
338.924 177.337 L
315.349 149.215 L
cp
f
GR
GS
[0.6 0 0 0.6 87.63778 263.55511] CT
0 GC
1 setlinecap
1 LJ
0.833 LW
N
338.924 177.337 M
315.349 149.215 L
S
GR
GS
[0.6 0 0 0.6 204.49487 513.54487] CT
0 GC
/Helvetica 16.667 F
GS
[1 0 0 1 0 0] CT
-10 17 moveto 
1 -1 scale
(5) t 
GR
GR
GS
[0.6 0 0 0.6 87.63778 263.55511] CT
0.609 GC
N
347.67 248.687 M
386.076 265.013 L
362.5 228.247 L
cp
f
GR
GS
[0.6 0 0 0.6 87.63778 263.55511] CT
0.716 GC
N
324.095 193.848 M
362.5 228.247 L
338.924 177.337 L
cp
f
GR
GS
[0.6 0 0 0.6 87.63778 263.55511] CT
0 GC
1 setlinecap
1 LJ
0.833 LW
N
386.076 265.013 M
362.5 228.247 L
S
GR
GS
[0.6 0 0 0.6 87.63778 263.55511] CT
0 GC
1 setlinecap
1 LJ
0.833 LW
N
362.5 228.247 M
338.924 177.337 L
S
GR
GS
[0.6 0 0 0.6 87.63778 263.55511] CT
0.609 GC
N
362.5 228.247 M
324.095 193.848 L
347.67 248.687 L
cp
f
GR
GS
[0.6 0 0 0.6 87.63778 263.55511] CT
0 GC
1 setlinecap
1 LJ
0.833 LW
N
324.095 193.848 M
362.5 228.247 L
S
GR
GS
[0.6 0 0 0.6 87.63778 263.55511] CT
0 GC
1 setlinecap
1 LJ
0.833 LW
N
456.803 332.876 M
495.208 358.632 L
S
GR
GS
[0.6 0 0 0.6 87.63778 263.55511] CT
0.575 GC
N
386.076 265.013 M
347.67 248.687 L
371.246 272.879 L
cp
f
GR
GS
[0.6 0 0 0.6 87.63778 263.55511] CT
0 GC
1 setlinecap
1 LJ
0.833 LW
N
347.67 248.687 M
386.076 265.013 L
S
GR
GS
[0.6 0 0 0.6 87.63778 263.55511] CT
0.716 GC
N
338.924 177.337 M
300.519 197.158 L
324.095 193.848 L
cp
f
GR
GS
[0.6 0 0 0.6 87.63778 263.55511] CT
0 GC
1 setlinecap
1 LJ
0.833 LW
N
300.519 197.158 M
338.924 177.337 L
S
GR
GS
[0.6 0 0 0.6 134.26496 350.67206] CT
0 GC
/Helvetica 16.667 F
GS
[1 0 0 1 0 0] CT
-19 6.5 moveto 
1 -1 scale
(64) t 
GR
GR
GS
[0.6 0 0 0.6 87.63778 263.55511] CT
0.781 GC
N
191.387 124.756 M
152.981 123.36 L
176.557 163.269 L
cp
f
GR
GS
[0.6 0 0 0.6 87.63778 263.55511] CT
0 GC
1 setlinecap
1 LJ
0.833 LW
N
152.981 123.36 M
191.387 124.756 L
S
GR
GS
[0.6 0 0 0.6 87.63778 263.55511] CT
0.781 GC
N
176.557 163.269 M
214.962 167.022 L
191.387 124.756 L
cp
f
GR
GS
[0.6 0 0 0.6 87.63778 263.55511] CT
0 GC
1 setlinecap
1 LJ
0.833 LW
N
214.962 167.022 M
191.387 124.756 L
S
GR
GS
[0.6 0 0 0.6 87.63778 263.55511] CT
0.781 GC
N
214.962 167.022 M
176.557 163.269 L
200.132 174.103 L
cp
f
GR
GS
[0.6 0 0 0.6 87.63778 263.55511] CT
0 GC
1 setlinecap
1 LJ
0.833 LW
N
176.557 163.269 M
214.962 167.022 L
S
GR
GS
[0.6 0 0 0.6 87.63778 263.55511] CT
0.781 GC
N
214.962 167.022 M
238.538 148.781 L
200.132 174.103 L
cp
f
GR
GS
[0.6 0 0 0.6 87.63778 263.55511] CT
0 GC
1 setlinecap
1 LJ
0.833 LW
N
238.538 148.781 M
214.962 167.022 L
S
GR
GS
[0.6 0 0 0.6 87.63778 263.55511] CT
0 GC
2 setlinecap
1 LJ
0.833 LW
N
91 151.301 M
83.77 147.979 L
S
GR
GS
[0.6 0 0 0.6 87.63778 263.55511] CT
0.679 GC
N
276.943 164.322 M
238.538 148.781 L
262.113 213.836 L
cp
f
GR
GS
[0.6 0 0 0.6 87.63778 263.55511] CT
0 GC
1 setlinecap
1 LJ
0.833 LW
N
238.538 148.781 M
276.943 164.322 L
S
GR
GS
[0.6 0 0 0.6 87.63778 263.55511] CT
0.679 GC
N
262.113 213.836 M
300.519 197.158 L
276.943 164.322 L
cp
f
GR
GS
[0.6 0 0 0.6 87.63778 263.55511] CT
0 GC
1 setlinecap
1 LJ
0.833 LW
N
300.519 197.158 M
276.943 164.322 L
S
GR
GS
[0.6 0 0 0.6 87.63778 263.55511] CT
0 GC
1 setlinecap
1 LJ
0.833 LW
N
480.378 425.434 M
487.609 428.757 L
S
GR
GS
[0.6 0 0 0.6 87.63778 263.55511] CT
0.504 GC
N
418.397 334.624 M
394.821 356.794 L
433.227 337.758 L
cp
f
GR
GS
[0.6 0 0 0.6 87.63778 263.55511] CT
0 GC
1 setlinecap
1 LJ
0.833 LW
N
394.821 356.794 M
433.227 337.758 L
S
GR
GS
[0.6 0 0 0.6 87.63778 263.55511] CT
0.504 GC
N
433.227 337.758 M
456.803 332.876 L
418.397 334.624 L
cp
f
GR
GS
[0.6 0 0 0.6 87.63778 263.55511] CT
0 GC
1 setlinecap
1 LJ
0.833 LW
N
456.803 332.876 M
433.227 337.758 L
S
GR
GS
[0.6 0 0 0.6 87.63778 263.55511] CT
0 GC
1 setlinecap
1 LJ
0.833 LW
N
152.981 123.36 M
129.405 111.741 L
S
GR
GS
[0.6 0 0 0.6 87.63778 263.55511] CT
0.671 GC
N
285.689 228.599 M
324.095 193.848 L
300.519 197.158 L
262.113 213.836 L
cp
f
GR
GS
[0.6 0 0 0.6 87.63778 263.55511] CT
0 GC
1 setlinecap
1 LJ
0.833 LW
N
324.095 193.848 M
300.519 197.158 L
S
GR
GS
[0.6 0 0 0.6 87.63778 263.55511] CT
0 GC
1 setlinecap
1 LJ
0.833 LW
N
262.113 213.836 M
300.519 197.158 L
S
GR
GS
[0.6 0 0 0.6 383.8375 522.47934] CT
0 GC
/Helvetica 16.667 F
GS
[1 0 0 1 0 0] CT
0 17 moveto 
1 -1 scale
(4) t 
GR
GR
GS
[0.6 0 0 0.6 87.63778 263.55511] CT
0.487 GC
N
356.416 346.754 M
394.821 356.794 L
371.246 272.879 L
cp
f
GR
GS
[0.6 0 0 0.6 87.63778 263.55511] CT
0.482 GC
N
394.821 356.794 M
356.416 346.754 L
379.992 358.374 L
cp
f
GR
GS
[0.6 0 0 0.6 87.63778 263.55511] CT
0 GC
1 setlinecap
1 LJ
0.833 LW
N
356.416 346.754 M
394.821 356.794 L
S
GR
GS
[0.6 0 0 0.6 87.63778 263.55511] CT
0 GC
1 setlinecap
1 LJ
0.833 LW
N
394.821 356.794 M
371.246 272.879 L
S
GR
GS
[0.6 0 0 0.6 87.63778 263.55511] CT
0.482 GC
N
394.821 356.794 M
418.397 334.624 L
379.992 358.374 L
cp
f
GR
GS
[0.6 0 0 0.6 87.63778 263.55511] CT
0 GC
1 setlinecap
1 LJ
0.833 LW
N
418.397 334.624 M
394.821 356.794 L
S
GR
GS
[0.6 0 0 0.6 87.63778 263.55511] CT
0.708 GC
N
223.708 209.297 M
262.113 213.836 L
238.538 148.781 L
cp
f
GR
GS
[0.6 0 0 0.6 87.63778 263.55511] CT
0 GC
1 setlinecap
1 LJ
0.833 LW
N
262.113 213.836 M
238.538 148.781 L
S
GR
GS
[0.6 0 0 0.6 87.63778 263.55511] CT
0.824 GC
N
262.113 213.836 M
285.689 228.599 L
247.284 183.198 L
cp
f
GR
GS
[0.6 0 0 0.6 87.63778 263.55511] CT
0 GC
1 setlinecap
1 LJ
0.833 LW
N
285.689 228.599 M
262.113 213.836 L
S
GR
GS
[0.6 0 0 0.6 87.63778 263.55511] CT
0.824 GC
N
247.284 183.198 M
223.708 209.297 L
262.113 213.836 L
cp
f
GR
GS
[0.6 0 0 0.6 87.63778 263.55511] CT
0 GC
1 setlinecap
1 LJ
0.833 LW
N
223.708 209.297 M
262.113 213.836 L
S
GR
GS
[0.6 0 0 0.6 87.63778 263.55511] CT
0 GC
1 setlinecap
1 LJ
0.833 LW
N
176.557 163.269 M
152.981 123.36 L
S
GR
GS
[0.6 0 0 0.6 87.63778 263.55511] CT
0 GC
1 setlinecap
1 LJ
0.833 LW
N
200.132 174.103 M
176.557 163.269 L
S
GR
GS
[0.6 0 0 0.6 87.63778 263.55511] CT
0.609 GC
N
309.265 259.864 M
347.67 248.687 L
324.095 193.848 L
cp
f
GR
GS
[0.6 0 0 0.6 87.63778 263.55511] CT
0.641 GC
N
347.67 248.687 M
309.265 259.864 L
332.84 260.483 L
371.246 272.879 L
cp
f
GR
GS
[0.6 0 0 0.6 87.63778 263.55511] CT
0 GC
1 setlinecap
1 LJ
0.833 LW
N
371.246 272.879 M
347.67 248.687 L
S
GR
GS
[0.6 0 0 0.6 87.63778 263.55511] CT
0 GC
1 setlinecap
1 LJ
0.833 LW
N
347.67 248.687 M
324.095 193.848 L
S
GR
GS
[0.6 0 0 0.6 87.63778 263.55511] CT
0 GC
1 setlinecap
1 LJ
0.833 LW
N
309.265 259.864 M
347.67 248.687 L
S
GR
GS
[0.6 0 0 0.6 87.63778 263.55511] CT
0 GC
1 setlinecap
1 LJ
0.833 LW
N
418.397 334.624 M
456.803 332.876 L
S
GR
GS
[0.6 0 0 0.6 87.63778 263.55511] CT
0.708 GC
N
238.538 148.781 M
200.132 174.103 L
223.708 209.297 L
cp
f
GR
GS
[0.6 0 0 0.6 87.63778 263.55511] CT
0 GC
1 setlinecap
1 LJ
0.833 LW
N
200.132 174.103 M
238.538 148.781 L
S
GR
GS
[0.6 0 0 0.6 87.63778 263.55511] CT
0.609 GC
N
324.095 193.848 M
285.689 228.599 L
309.265 259.864 L
cp
f
GR
GS
[0.6 0 0 0.6 87.63778 263.55511] CT
0 GC
1 setlinecap
1 LJ
0.833 LW
N
285.689 228.599 M
324.095 193.848 L
S
GR
GS
[0.6 0 0 0.6 87.63778 263.55511] CT
0 GC
1 setlinecap
1 LJ
0.833 LW
N
403.567 446.217 M
410.798 449.54 L
S
GR
GS
[0.6 0 0 0.6 87.63778 263.55511] CT
0.686 GC
N
270.859 241.181 M
309.265 259.864 L
285.689 228.599 L
247.284 183.198 L
cp
f
GR
GS
[0.6 0 0 0.6 87.63778 263.55511] CT
0 GC
1 setlinecap
1 LJ
0.833 LW
N
309.265 259.864 M
285.689 228.599 L
S
GR
GS
[0.6 0 0 0.6 87.63778 263.55511] CT
0 GC
1 LJ
0.833 LW
N
247.284 183.198 M
285.689 228.599 L
S
GR
GS
[0.6 0 0 0.6 87.63778 263.55511] CT
0.487 GC
N
371.246 272.879 M
332.84 260.483 L
356.416 346.754 L
cp
f
GR
GS
[0.6 0 0 0.6 87.63778 263.55511] CT
0 GC
1 setlinecap
1 LJ
0.833 LW
N
332.84 260.483 M
371.246 272.879 L
S
GR
GS
[0.6 0 0 0.6 87.63778 263.55511] CT
0 GC
1 setlinecap
1 LJ
0.833 LW
N
223.708 209.297 M
200.132 174.103 L
S
GR
GS
[0.6 0 0 0.6 87.63778 263.55511] CT
0.487 GC
N
318.011 354.788 M
356.416 346.754 L
332.84 260.483 L
cp
f
GR
GS
[0.6 0 0 0.6 87.63778 263.55511] CT
0.446 GC
N
356.416 346.754 M
318.011 354.788 L
341.586 379.767 L
cp
f
GR
GS
[0.6 0 0 0.6 87.63778 263.55511] CT
0 GC
1 setlinecap
1 LJ
0.833 LW
N
318.011 354.788 M
356.416 346.754 L
S
GR
GS
[0.6 0 0 0.6 87.63778 263.55511] CT
0.446 GC
N
341.586 379.767 M
379.992 358.374 L
356.416 346.754 L
cp
f
GR
GS
[0.6 0 0 0.6 87.63778 263.55511] CT
0 GC
1 setlinecap
1 LJ
0.833 LW
N
379.992 358.374 M
356.416 346.754 L
S
GR
GS
[0.6 0 0 0.6 87.63778 263.55511] CT
0 GC
1 setlinecap
1 LJ
0.833 LW
N
356.416 346.754 M
332.84 260.483 L
S
GR
GS
[0.6 0 0 0.6 87.63778 263.55511] CT
0.582 GC
N
294.435 288.162 M
332.84 260.483 L
309.265 259.864 L
270.859 241.181 L
cp
f
GR
GS
[0.6 0 0 0.6 87.63778 263.55511] CT
0 GC
1 setlinecap
1 LJ
0.833 LW
N
332.84 260.483 M
309.265 259.864 L
S
GR
GS
[0.6 0 0 0.6 87.63778 263.55511] CT
0 GC
1 LJ
0.833 LW
N
270.859 241.181 M
309.265 259.864 L
S
GR
GS
[0.6 0 0 0.6 337.75095 534.94915] CT
0 GC
/Helvetica 16.667 F
GS
[1 0 0 1 0 0] CT
0 17 moveto 
1 -1 scale
(2) t 
GR
GR
GS
[0.6 0 0 0.6 87.63778 263.55511] CT
0 GC
1 setlinecap
1 LJ
0.833 LW
N
247.284 183.198 M
223.708 209.297 L
S
GR
GS
[0.6 0 0 0.6 87.63778 263.55511] CT
0 GC
1 setlinecap
1 LJ
0.833 LW
N
379.992 358.374 M
418.397 334.624 L
S
GR
GS
[0.6 0 0 0.6 87.63778 263.55511] CT
0 GC
1 LJ
0.833 LW
N
341.586 379.767 M
379.992 358.374 L
S
GR
GS
[0.6 0 0 0.6 87.63778 263.55511] CT
0.487 GC
N
332.84 260.483 M
294.435 288.162 L
318.011 354.788 L
cp
f
GR
GS
[0.6 0 0 0.6 87.63778 263.55511] CT
0 GC
1 setlinecap
1 LJ
0.833 LW
N
318.011 354.788 M
294.435 288.162 L
S
GR
GS
[0.6 0 0 0.6 87.63778 263.55511] CT
0 GC
1 LJ
0.833 LW
N
341.586 379.767 M
318.011 354.788 L
S
GR
GS
[0.6 0 0 0.6 87.63778 263.55511] CT
0 GC
1 LJ
0.833 LW
N
294.435 288.162 M
332.84 260.483 L
S
GR
GS
[0.6 0 0 0.6 87.63778 263.55511] CT
0 GC
1 LJ
0.833 LW
N
326.756 467 M
319.075 469.078 L
S
GR
GS
[0.6 0 0 0.6 87.63778 263.55511] CT
0 GC
1 LJ
0.833 LW
N
326.756 467 M
333.987 470.323 L
S
GR
GS
[0.6 0 0 0.6 87.63778 263.55511] CT
0 GC
1 setlinecap
1 LJ
0.833 LW
N
294.435 288.162 M
270.859 241.181 L
S
GR
GS
[0.6 0 0 0.6 87.63778 263.55511] CT
0 GC
1 setlinecap
1 LJ
0.833 LW
N
270.859 241.181 M
247.284 183.198 L
S
GR
GS
[0.6 0 0 0.6 275.22177 546.04684] CT
0 GC
/Helvetica 16.667 F
GS
[1 0 0 1 0 0] CT
-10 17 moveto 
1 -1 scale
(0) t 
GR
GR
GS
[0.6 0 0 0.6 291.6644 547.41898] CT
0 GC
/Helvetica 16.667 F
GS
[1 0 0 1 0 0] CT
0 17 moveto 
1 -1 scale
(0) t 
GR
GR
showpage
%%Trailer
%%Pages: 1
%%EOF
